esc1/test_dmux8way.log
Testando DMUX8WAY
Time	in	sel	a	b	c	d	e	f	g	h
0	0	000	0	0	0	0	0	0	0	0
10000	0	001	0	0	0	0	0	0	0	0
20000	0	010	0	0	0	0	0	0	0	0
30000	0	011	0	0	0	0	0	0	0	0
40000	0	100	0	0	0	0	0	0	0	0
50000	0	101	0	0	0	0	0	0	0	0
60000	0	110	0	0	0	0	0	0	0	0
70000	0	111	0	0	0	0	0	0	0	0
80000	1	000	1	0	0	0	0	0	0	0
90000	1	001	0	1	0	0	0	0	0	0
100000	1	010	0	0	1	0	0	0	0	0
110000	1	011	0	0	0	1	0	0	0	0
120000	1	100	0	0	0	0	1	0	0	0
130000	1	101	0	0	0	0	0	1	0	0
140000	1	110	0	0	0	0	0	0	1	0
150000	1	111	0	0	0	0	0	0	0	1

Teste DMUX8WAY concluído!
tb_dmux8way.v:45: $finish called at 160000 (1ps)
